Laboratorium 1
…
I jeszcze jeden przykad:

auta2012 %>%
  filter(Rok.produkcji == 2007, Marka == "Volkswagen") %>%
  group_by(Model, Rodzaj.paliwa) %>%
  summarise(medianaCeny = median(Cena.w.PLN, na.rm=TRUE),
            medianaPrzebieg = median(Przebieg.w.km, na.rm=TRUE),
            liczba = n())

## # A tibble: 35 x 5
## # Groups:   Model [19]
##    Model     Rodzaj.paliwa          medianaCeny medianaPrzebieg liczba
##    <fct>     <fct>                        <dbl>           <dbl>  <int>
##  1 Beetle    benzyna                     39000           30000       1
##  2 Caddy     benzyna                     27900          170000       2
##  3 Caddy     olej napedowy (diesel)      30813          126906.     49
##  4 Caravelle olej napedowy (diesel)      65900          170000       9
##  5 Eos       benzyna                     53445           53000       6
##  6 Eos       olej napedowy (diesel)      64900           62000       7
##  7 Fox       benzyna                     15228.          69000      11
##  8 Fox       olej napedowy (diesel)      17000          137000       7
##  9 Golf      benzyna                     35900           70500      37
## 10 Golf      benzyna+LPG                 31650           99500       4
## #  with 25 more rows
…
